SingleCycle/SingleCycle.sim/sim_1/behav/xsim/simulate.log
Vivado Simulator 2018.3
Time resolution is 1 ps
==============================================================
Time:                10000, CLK =   1, PC = 0x00000000
[$s0] = 0x00000000, [$s1] = 0x00000000, [$s2] = 0x00000000
[$s3] = 0x00000000, [$s4] = 0x00000000, [$s5] = 0x00000000
[$s6] = 0x00000000, [$s7] = 0x00000000, [$t0] = 0x00000000
[$t1] = 0x00000000, [$t2] = 0x00000000, [$t3] = 0x00000000
[$t4] = 0x00000000, [$t5] = 0x00000000, [$t6] = 0x00000000
[$t7] = 0x00000000, [$t8] = 0x00000000, [$t9] = 0x00000000
Time:                20000, CLK =   2, PC = 0x00000004
[$s0] = 0x00000000, [$s1] = 0x00000000, [$s2] = 0x00000000
[$s3] = 0x00000000, [$s4] = 0x00000000, [$s5] = 0x00000000
[$s6] = 0x00000000, [$s7] = 0x00000000, [$t0] = 0x00000020
[$t1] = 0x00000000, [$t2] = 0x00000000, [$t3] = 0x00000000
[$t4] = 0x00000000, [$t5] = 0x00000000, [$t6] = 0x00000000
[$t7] = 0x00000000, [$t8] = 0x00000000, [$t9] = 0x00000000
Time:                30000, CLK =   3, PC = 0x00000008
[$s0] = 0x00000000, [$s1] = 0x00000000, [$s2] = 0x00000000
[$s3] = 0x00000000, [$s4] = 0x00000000, [$s5] = 0x00000000
[$s6] = 0x00000000, [$s7] = 0x00000000, [$t0] = 0x00000020
[$t1] = 0x00000037, [$t2] = 0x00000000, [$t3] = 0x00000000
[$t4] = 0x00000000, [$t5] = 0x00000000, [$t6] = 0x00000000
[$t7] = 0x00000000, [$t8] = 0x00000000, [$t9] = 0x00000000
Time:                40000, CLK =   4, PC = 0x0000000c
[$s0] = 0x00000020, [$s1] = 0x00000000, [$s2] = 0x00000000
[$s3] = 0x00000000, [$s4] = 0x00000000, [$s5] = 0x00000000
[$s6] = 0x00000000, [$s7] = 0x00000000, [$t0] = 0x00000020
[$t1] = 0x00000037, [$t2] = 0x00000000, [$t3] = 0x00000000
[$t4] = 0x00000000, [$t5] = 0x00000000, [$t6] = 0x00000000
[$t7] = 0x00000000, [$t8] = 0x00000000, [$t9] = 0x00000000
Time:                50000, CLK =   5, PC = 0x00000010
[$s0] = 0x00000037, [$s1] = 0x00000000, [$s2] = 0x00000000
[$s3] = 0x00000000, [$s4] = 0x00000000, [$s5] = 0x00000000
[$s6] = 0x00000000, [$s7] = 0x00000000, [$t0] = 0x00000020
[$t1] = 0x00000037, [$t2] = 0x00000000, [$t3] = 0x00000000
[$t4] = 0x00000000, [$t5] = 0x00000000, [$t6] = 0x00000000
[$t7] = 0x00000000, [$t8] = 0x00000000, [$t9] = 0x00000000
Time:                60000, CLK =   6, PC = 0x00000014
[$s0] = 0x00000037, [$s1] = 0x00000000, [$s2] = 0x00000000
[$s3] = 0x00000000, [$s4] = 0x00000000, [$s5] = 0x00000000
[$s6] = 0x00000000, [$s7] = 0x00000000, [$t0] = 0x00000020
[$t1] = 0x00000037, [$t2] = 0x00000000, [$t3] = 0x00000000
[$t4] = 0x00000000, [$t5] = 0x00000000, [$t6] = 0x00000000
[$t7] = 0x00000000, [$t8] = 0x00000000, [$t9] = 0x00000000
Time:                70000, CLK =   7, PC = 0x00000018
[$s0] = 0x00000037, [$s1] = 0x00000000, [$s2] = 0x00000000
[$s3] = 0x00000000, [$s4] = 0x00000000, [$s5] = 0x00000000
[$s6] = 0x00000000, [$s7] = 0x00000000, [$t0] = 0x00000020
[$t1] = 0x00000037, [$t2] = 0x00000000, [$t3] = 0x00000000
[$t4] = 0x00000000, [$t5] = 0x00000000, [$t6] = 0x00000000
[$t7] = 0x00000000, [$t8] = 0x00000000, [$t9] = 0x00000000
Time:                80000, CLK =   8, PC = 0x0000001c
[$s0] = 0x00000037, [$s1] = 0x00000057, [$s2] = 0x00000000
[$s3] = 0x00000000, [$s4] = 0x00000000, [$s5] = 0x00000000
[$s6] = 0x00000000, [$s7] = 0x00000000, [$t0] = 0x00000020
[$t1] = 0x00000037, [$t2] = 0x00000000, [$t3] = 0x00000000
[$t4] = 0x00000000, [$t5] = 0x00000000, [$t6] = 0x00000000
[$t7] = 0x00000000, [$t8] = 0x00000000, [$t9] = 0x00000000
Time:                90000, CLK =   9, PC = 0x00000020
[$s0] = 0x00000037, [$s1] = 0x00000057, [$s2] = 0xffffffe9
[$s3] = 0x00000000, [$s4] = 0x00000000, [$s5] = 0x00000000
[$s6] = 0x00000000, [$s7] = 0x00000000, [$t0] = 0x00000020
[$t1] = 0x00000037, [$t2] = 0x00000000, [$t3] = 0x00000000
[$t4] = 0x00000000, [$t5] = 0x00000000, [$t6] = 0x00000000
[$t7] = 0x00000000, [$t8] = 0x00000000, [$t9] = 0x00000000
Time:               100000, CLK =  10, PC = 0x00000024
[$s0] = 0x00000037, [$s1] = 0x00000057, [$s2] = 0xffffffe9
[$s3] = 0x00000000, [$s4] = 0x00000000, [$s5] = 0x00000000
[$s6] = 0x00000000, [$s7] = 0x00000000, [$t0] = 0x00000020
[$t1] = 0x00000037, [$t2] = 0x00000000, [$t3] = 0x00000000
[$t4] = 0x00000000, [$t5] = 0x00000000, [$t6] = 0x00000000
[$t7] = 0x00000000, [$t8] = 0x00000000, [$t9] = 0x00000000
Time:               110000, CLK =  11, PC = 0x00000028
[$s0] = 0x00000037, [$s1] = 0x00000037, [$s2] = 0xffffffe9
[$s3] = 0x00000000, [$s4] = 0x00000000, [$s5] = 0x00000000
[$s6] = 0x00000000, [$s7] = 0x00000000, [$t0] = 0x00000020
[$t1] = 0x00000037, [$t2] = 0x00000000, [$t3] = 0x00000000
[$t4] = 0x00000000, [$t5] = 0x00000000, [$t6] = 0x00000000
[$t7] = 0x00000000, [$t8] = 0x00000000, [$t9] = 0x00000000
Time:               120000, CLK =  12, PC = 0x0000002c
[$s0] = 0x00000037, [$s1] = 0x00000037, [$s2] = 0x00000000
[$s3] = 0x00000000, [$s4] = 0x00000000, [$s5] = 0x00000000
[$s6] = 0x00000000, [$s7] = 0x00000000, [$t0] = 0x00000020
[$t1] = 0x00000037, [$t2] = 0x00000000, [$t3] = 0x00000000
[$t4] = 0x00000000, [$t5] = 0x00000000, [$t6] = 0x00000000
[$t7] = 0x00000000, [$t8] = 0x00000000, [$t9] = 0x00000000
Time:               130000, CLK =  13, PC = 0x00000030
[$s0] = 0x00000037, [$s1] = 0x00000037, [$s2] = 0x00000000
[$s3] = 0x00000000, [$s4] = 0x00000000, [$s5] = 0x00000000
[$s6] = 0x00000000, [$s7] = 0x00000000, [$t0] = 0x00000020
[$t1] = 0x00000037, [$t2] = 0x00000000, [$t3] = 0x00000000
[$t4] = 0x00000000, [$t5] = 0x00000000, [$t6] = 0x00000000
[$t7] = 0x00000000, [$t8] = 0x00000000, [$t9] = 0x00000000
Time:               140000, CLK =  14, PC = 0x00000034
[$s0] = 0x00000037, [$s1] = 0x00000037, [$s2] = 0x00000000
[$s3] = 0x00000020, [$s4] = 0x00000000, [$s5] = 0x00000000
[$s6] = 0x00000000, [$s7] = 0x00000000, [$t0] = 0x00000020
[$t1] = 0x00000037, [$t2] = 0x00000000, [$t3] = 0x00000000
[$t4] = 0x00000000, [$t5] = 0x00000000, [$t6] = 0x00000000
[$t7] = 0x00000000, [$t8] = 0x00000000, [$t9] = 0x00000000
Time:               150000, CLK =  15, PC = 0x00000038
[$s0] = 0x00000037, [$s1] = 0x00000037, [$s2] = 0x00000000
[$s3] = 0x00000020, [$s4] = 0x00000000, [$s5] = 0x00000000
[$s6] = 0x00000000, [$s7] = 0x00000000, [$t0] = 0x00000020
[$t1] = 0x00000037, [$t2] = 0x00000000, [$t3] = 0x00000000
[$t4] = 0x00000000, [$t5] = 0x00000000, [$t6] = 0x00000000
[$t7] = 0x00000000, [$t8] = 0x00000000, [$t9] = 0x00000000
Time:               160000, CLK =  16, PC = 0x0000003c
[$s0] = 0x00000037, [$s1] = 0x00000037, [$s2] = 0x00000000
[$s3] = 0x00000020, [$s4] = 0x00000001, [$s5] = 0x00000000
[$s6] = 0x00000000, [$s7] = 0x00000000, [$t0] = 0x00000020
[$t1] = 0x00000037, [$t2] = 0x00000000, [$t3] = 0x00000000
[$t4] = 0x00000000, [$t5] = 0x00000000, [$t6] = 0x00000000
[$t7] = 0x00000000, [$t8] = 0x00000000, [$t9] = 0x00000000
Time:               170000, CLK =  17, PC = 0x00000040
[$s0] = 0x00000037, [$s1] = 0x00000037, [$s2] = 0x00000000
[$s3] = 0x00000020, [$s4] = 0x00000001, [$s5] = 0x00000000
[$s6] = 0x00000000, [$s7] = 0x00000000, [$t0] = 0x00000020
[$t1] = 0x00000037, [$t2] = 0x00000000, [$t3] = 0x00000000
[$t4] = 0x00000000, [$t5] = 0x00000000, [$t6] = 0x00000000
[$t7] = 0x00000000, [$t8] = 0x00000000, [$t9] = 0x00000000
Time:               180000, CLK =  18, PC = 0x00000044
[$s0] = 0x00000037, [$s1] = 0x00000037, [$s2] = 0x00000037
[$s3] = 0x00000020, [$s4] = 0x00000001, [$s5] = 0x00000000
[$s6] = 0x00000000, [$s7] = 0x00000000, [$t0] = 0x00000020
[$t1] = 0x00000037, [$t2] = 0x00000000, [$t3] = 0x00000000
[$t4] = 0x00000000, [$t5] = 0x00000000, [$t6] = 0x00000000
[$t7] = 0x00000000, [$t8] = 0x00000000, [$t9] = 0x00000000
Time:               190000, CLK =  19, PC = 0x00000038
[$s0] = 0x00000037, [$s1] = 0x00000037, [$s2] = 0x00000037
[$s3] = 0x00000020, [$s4] = 0x00000001, [$s5] = 0x00000000
[$s6] = 0x00000000, [$s7] = 0x00000000, [$t0] = 0x00000020
[$t1] = 0x00000037, [$t2] = 0x00000000, [$t3] = 0x00000000
[$t4] = 0x00000000, [$t5] = 0x00000000, [$t6] = 0x00000000
[$t7] = 0x00000000, [$t8] = 0x00000000, [$t9] = 0x00000000
Time:               200000, CLK =  20, PC = 0x0000003c
[$s0] = 0x00000037, [$s1] = 0x00000037, [$s2] = 0x00000037
[$s3] = 0x00000020, [$s4] = 0x00000000, [$s5] = 0x00000000
[$s6] = 0x00000000, [$s7] = 0x00000000, [$t0] = 0x00000020
[$t1] = 0x00000037, [$t2] = 0x00000000, [$t3] = 0x00000000
[$t4] = 0x00000000, [$t5] = 0x00000000, [$t6] = 0x00000000
[$t7] = 0x00000000, [$t8] = 0x00000000, [$t9] = 0x00000000
Time:               210000, CLK =  21, PC = 0x0000007c
[$s0] = 0x00000037, [$s1] = 0x00000037, [$s2] = 0x00000037
[$s3] = 0x00000020, [$s4] = 0x00000000, [$s5] = 0x00000000
[$s6] = 0x00000000, [$s7] = 0x00000000, [$t0] = 0x00000020
[$t1] = 0x00000037, [$t2] = 0x00000000, [$t3] = 0x00000000
[$t4] = 0x00000000, [$t5] = 0x00000000, [$t6] = 0x00000000
[$t7] = 0x00000000, [$t8] = 0x00000000, [$t9] = 0x00000000
Time:               220000, CLK =  22, PC = 0x0000007c
[$s0] = 0x00000037, [$s1] = 0x00000037, [$s2] = 0x00000037
[$s3] = 0x00000020, [$s4] = 0x00000000, [$s5] = 0x00000000
[$s6] = 0x00000000, [$s7] = 0x00000000, [$t0] = 0x00000020
[$t1] = 0x00000037, [$t2] = 0x00000000, [$t3] = 0x00000000
[$t4] = 0x00000000, [$t5] = 0x00000000, [$t6] = 0x00000000
[$t7] = 0x00000000, [$t8] = 0x00000000, [$t9] = 0x00000000
Time:               230000, CLK =  23, PC = 0x0000007c
[$s0] = 0x00000037, [$s1] = 0x00000037, [$s2] = 0x00000037
[$s3] = 0x00000020, [$s4] = 0x00000000, [$s5] = 0x00000000
[$s6] = 0x00000000, [$s7] = 0x00000000, [$t0] = 0x00000020
[$t1] = 0x00000037, [$t2] = 0x00000000, [$t3] = 0x00000000
[$t4] = 0x00000000, [$t5] = 0x00000000, [$t6] = 0x00000000
[$t7] = 0x00000000, [$t8] = 0x00000000, [$t9] = 0x00000000
Time:               240000, CLK =  24, PC = 0x0000007c
[$s0] = 0x00000037, [$s1] = 0x00000037, [$s2] = 0x00000037
[$s3] = 0x00000020, [$s4] = 0x00000000, [$s5] = 0x00000000
[$s6] = 0x00000000, [$s7] = 0x00000000, [$t0] = 0x00000020
[$t1] = 0x00000037, [$t2] = 0x00000000, [$t3] = 0x00000000
[$t4] = 0x00000000, [$t5] = 0x00000000, [$t6] = 0x00000000
[$t7] = 0x00000000, [$t8] = 0x00000000, [$t9] = 0x00000000
Time:               250000, CLK =  25, PC = 0x0000007c
[$s0] = 0x00000037, [$s1] = 0x00000037, [$s2] = 0x00000037
[$s3] = 0x00000020, [$s4] = 0x00000000, [$s5] = 0x00000000
[$s6] = 0x00000000, [$s7] = 0x00000000, [$t0] = 0x00000020
[$t1] = 0x00000037, [$t2] = 0x00000000, [$t3] = 0x00000000
[$t4] = 0x00000000, [$t5] = 0x00000000, [$t6] = 0x00000000
[$t7] = 0x00000000, [$t8] = 0x00000000, [$t9] = 0x00000000
Time:               260000, CLK =  26, PC = 0x0000007c
[$s0] = 0x00000037, [$s1] = 0x00000037, [$s2] = 0x00000037
[$s3] = 0x00000020, [$s4] = 0x00000000, [$s5] = 0x00000000
[$s6] = 0x00000000, [$s7] = 0x00000000, [$t0] = 0x00000020
[$t1] = 0x00000037, [$t2] = 0x00000000, [$t3] = 0x00000000
[$t4] = 0x00000000, [$t5] = 0x00000000, [$t6] = 0x00000000
[$t7] = 0x00000000, [$t8] = 0x00000000, [$t9] = 0x00000000
Time:               270000, CLK =  27, PC = 0x0000007c
[$s0] = 0x00000037, [$s1] = 0x00000037, [$s2] = 0x00000037
[$s3] = 0x00000020, [$s4] = 0x00000000, [$s5] = 0x00000000
[$s6] = 0x00000000, [$s7] = 0x00000000, [$t0] = 0x00000020
[$t1] = 0x00000037, [$t2] = 0x00000000, [$t3] = 0x00000000
[$t4] = 0x00000000, [$t5] = 0x00000000, [$t6] = 0x00000000
[$t7] = 0x00000000, [$t8] = 0x00000000, [$t9] = 0x00000000
Time:               280000, CLK =  28, PC = 0x0000007c
[$s0] = 0x00000037, [$s1] = 0x00000037, [$s2] = 0x00000037
[$s3] = 0x00000020, [$s4] = 0x00000000, [$s5] = 0x00000000
[$s6] = 0x00000000, [$s7] = 0x00000000, [$t0] = 0x00000020
[$t1] = 0x00000037, [$t2] = 0x00000000, [$t3] = 0x00000000
[$t4] = 0x00000000, [$t5] = 0x00000000, [$t6] = 0x00000000
[$t7] = 0x00000000, [$t8] = 0x00000000, [$t9] = 0x00000000
Time:               290000, CLK =  29, PC = 0x0000007c
[$s0] = 0x00000037, [$s1] = 0x00000037, [$s2] = 0x00000037
[$s3] = 0x00000020, [$s4] = 0x00000000, [$s5] = 0x00000000
[$s6] = 0x00000000, [$s7] = 0x00000000, [$t0] = 0x00000020
[$t1] = 0x00000037, [$t2] = 0x00000000, [$t3] = 0x00000000
[$t4] = 0x00000000, [$t5] = 0x00000000, [$t6] = 0x00000000
[$t7] = 0x00000000, [$t8] = 0x00000000, [$t9] = 0x00000000
Time:               300000, CLK =  30, PC = 0x0000007c
[$s0] = 0x00000037, [$s1] = 0x00000037, [$s2] = 0x00000037
[$s3] = 0x00000020, [$s4] = 0x00000000, [$s5] = 0x00000000
[$s6] = 0x00000000, [$s7] = 0x00000000, [$t0] = 0x00000020
[$t1] = 0x00000037, [$t2] = 0x00000000, [$t3] = 0x00000000
[$t4] = 0x00000000, [$t5] = 0x00000000, [$t6] = 0x00000000
[$t7] = 0x00000000, [$t8] = 0x00000000, [$t9] = 0x00000000
Time:               310000, CLK =  31, PC = 0x0000007c
[$s0] = 0x00000037, [$s1] = 0x00000037, [$s2] = 0x00000037
[$s3] = 0x00000020, [$s4] = 0x00000000, [$s5] = 0x00000000
[$s6] = 0x00000000, [$s7] = 0x00000000, [$t0] = 0x00000020
[$t1] = 0x00000037, [$t2] = 0x00000000, [$t3] = 0x00000000
[$t4] = 0x00000000, [$t5] = 0x00000000, [$t6] = 0x00000000
[$t7] = 0x00000000, [$t8] = 0x00000000, [$t9] = 0x00000000
Time:               320000, CLK =  32, PC = 0x0000007c
[$s0] = 0x00000037, [$s1] = 0x00000037, [$s2] = 0x00000037
[$s3] = 0x00000020, [$s4] = 0x00000000, [$s5] = 0x00000000
[$s6] = 0x00000000, [$s7] = 0x00000000, [$t0] = 0x00000020
[$t1] = 0x00000037, [$t2] = 0x00000000, [$t3] = 0x00000000
[$t4] = 0x00000000, [$t5] = 0x00000000, [$t6] = 0x00000000
[$t7] = 0x00000000, [$t8] = 0x00000000, [$t9] = 0x00000000
Time:               330000, CLK =  33, PC = 0x0000007c
[$s0] = 0x00000037, [$s1] = 0x00000037, [$s2] = 0x00000037
[$s3] = 0x00000020, [$s4] = 0x00000000, [$s5] = 0x00000000
[$s6] = 0x00000000, [$s7] = 0x00000000, [$t0] = 0x00000020
[$t1] = 0x00000037, [$t2] = 0x00000000, [$t3] = 0x00000000
[$t4] = 0x00000000, [$t5] = 0x00000000, [$t6] = 0x00000000
[$t7] = 0x00000000, [$t8] = 0x00000000, [$t9] = 0x00000000
Time:               340000, CLK =  34, PC = 0x0000007c
[$s0] = 0x00000037, [$s1] = 0x00000037, [$s2] = 0x00000037
[$s3] = 0x00000020, [$s4] = 0x00000000, [$s5] = 0x00000000
[$s6] = 0x00000000, [$s7] = 0x00000000, [$t0] = 0x00000020
[$t1] = 0x00000037, [$t2] = 0x00000000, [$t3] = 0x00000000
[$t4] = 0x00000000, [$t5] = 0x00000000, [$t6] = 0x00000000
[$t7] = 0x00000000, [$t8] = 0x00000000, [$t9] = 0x00000000
Time:               350000, CLK =  35, PC = 0x0000007c
[$s0] = 0x00000037, [$s1] = 0x00000037, [$s2] = 0x00000037
[$s3] = 0x00000020, [$s4] = 0x00000000, [$s5] = 0x00000000
[$s6] = 0x00000000, [$s7] = 0x00000000, [$t0] = 0x00000020
[$t1] = 0x00000037, [$t2] = 0x00000000, [$t3] = 0x00000000
[$t4] = 0x00000000, [$t5] = 0x00000000, [$t6] = 0x00000000
[$t7] = 0x00000000, [$t8] = 0x00000000, [$t9] = 0x00000000
Time:               360000, CLK =  36, PC = 0x0000007c
[$s0] = 0x00000037, [$s1] = 0x00000037, [$s2] = 0x00000037
[$s3] = 0x00000020, [$s4] = 0x00000000, [$s5] = 0x00000000
[$s6] = 0x00000000, [$s7] = 0x00000000, [$t0] = 0x00000020
[$t1] = 0x00000037, [$t2] = 0x00000000, [$t3] = 0x00000000
[$t4] = 0x00000000, [$t5] = 0x00000000, [$t6] = 0x00000000
[$t7] = 0x00000000, [$t8] = 0x00000000, [$t9] = 0x00000000
Time:               370000, CLK =  37, PC = 0x0000007c
[$s0] = 0x00000037, [$s1] = 0x00000037, [$s2] = 0x00000037
[$s3] = 0x00000020, [$s4] = 0x00000000, [$s5] = 0x00000000
[$s6] = 0x00000000, [$s7] = 0x00000000, [$t0] = 0x00000020
[$t1] = 0x00000037, [$t2] = 0x00000000, [$t3] = 0x00000000
[$t4] = 0x00000000, [$t5] = 0x00000000, [$t6] = 0x00000000
[$t7] = 0x00000000, [$t8] = 0x00000000, [$t9] = 0x00000000
Time:               380000, CLK =  38, PC = 0x0000007c
[$s0] = 0x00000037, [$s1] = 0x00000037, [$s2] = 0x00000037
[$s3] = 0x00000020, [$s4] = 0x00000000, [$s5] = 0x00000000
[$s6] = 0x00000000, [$s7] = 0x00000000, [$t0] = 0x00000020
[$t1] = 0x00000037, [$t2] = 0x00000000, [$t3] = 0x00000000
[$t4] = 0x00000000, [$t5] = 0x00000000, [$t6] = 0x00000000
[$t7] = 0x00000000, [$t8] = 0x00000000, [$t9] = 0x00000000
Time:               390000, CLK =  39, PC = 0x0000007c
[$s0] = 0x00000037, [$s1] = 0x00000037, [$s2] = 0x00000037
[$s3] = 0x00000020, [$s4] = 0x00000000, [$s5] = 0x00000000
[$s6] = 0x00000000, [$s7] = 0x00000000, [$t0] = 0x00000020
[$t1] = 0x00000037, [$t2] = 0x00000000, [$t3] = 0x00000000
[$t4] = 0x00000000, [$t5] = 0x00000000, [$t6] = 0x00000000
[$t7] = 0x00000000, [$t8] = 0x00000000, [$t9] = 0x00000000
Time:               400000, CLK =  40, PC = 0x0000007c
[$s0] = 0x00000037, [$s1] = 0x00000037, [$s2] = 0x00000037
[$s3] = 0x00000020, [$s4] = 0x00000000, [$s5] = 0x00000000
[$s6] = 0x00000000, [$s7] = 0x00000000, [$t0] = 0x00000020
[$t1] = 0x00000037, [$t2] = 0x00000000, [$t3] = 0x00000000
[$t4] = 0x00000000, [$t5] = 0x00000000, [$t6] = 0x00000000
[$t7] = 0x00000000, [$t8] = 0x00000000, [$t9] = 0x00000000
Time:               410000, CLK =  41, PC = 0x0000007c
[$s0] = 0x00000037, [$s1] = 0x00000037, [$s2] = 0x00000037
[$s3] = 0x00000020, [$s4] = 0x00000000, [$s5] = 0x00000000
[$s6] = 0x00000000, [$s7] = 0x00000000, [$t0] = 0x00000020
[$t1] = 0x00000037, [$t2] = 0x00000000, [$t3] = 0x00000000
[$t4] = 0x00000000, [$t5] = 0x00000000, [$t6] = 0x00000000
[$t7] = 0x00000000, [$t8] = 0x00000000, [$t9] = 0x00000000
Time:               420000, CLK =  42, PC = 0x0000007c
[$s0] = 0x00000037, [$s1] = 0x00000037, [$s2] = 0x00000037
[$s3] = 0x00000020, [$s4] = 0x00000000, [$s5] = 0x00000000
[$s6] = 0x00000000, [$s7] = 0x00000000, [$t0] = 0x00000020
[$t1] = 0x00000037, [$t2] = 0x00000000, [$t3] = 0x00000000
[$t4] = 0x00000000, [$t5] = 0x00000000, [$t6] = 0x00000000
[$t7] = 0x00000000, [$t8] = 0x00000000, [$t9] = 0x00000000
Time:               430000, CLK =  43, PC = 0x0000007c
[$s0] = 0x00000037, [$s1] = 0x00000037, [$s2] = 0x00000037
[$s3] = 0x00000020, [$s4] = 0x00000000, [$s5] = 0x00000000
[$s6] = 0x00000000, [$s7] = 0x00000000, [$t0] = 0x00000020
[$t1] = 0x00000037, [$t2] = 0x00000000, [$t3] = 0x00000000
[$t4] = 0x00000000, [$t5] = 0x00000000, [$t6] = 0x00000000
[$t7] = 0x00000000, [$t8] = 0x00000000, [$t9] = 0x00000000
Time:               440000, CLK =  44, PC = 0x0000007c
[$s0] = 0x00000037, [$s1] = 0x00000037, [$s2] = 0x00000037
[$s3] = 0x00000020, [$s4] = 0x00000000, [$s5] = 0x00000000
[$s6] = 0x00000000, [$s7] = 0x00000000, [$t0] = 0x00000020
[$t1] = 0x00000037, [$t2] = 0x00000000, [$t3] = 0x00000000
[$t4] = 0x00000000, [$t5] = 0x00000000, [$t6] = 0x00000000
[$t7] = 0x00000000, [$t8] = 0x00000000, [$t9] = 0x00000000
Time:               450000, CLK =  45, PC = 0x0000007c
[$s0] = 0x00000037, [$s1] = 0x00000037, [$s2] = 0x00000037
[$s3] = 0x00000020, [$s4] = 0x00000000, [$s5] = 0x00000000
[$s6] = 0x00000000, [$s7] = 0x00000000, [$t0] = 0x00000020
[$t1] = 0x00000037, [$t2] = 0x00000000, [$t3] = 0x00000000
[$t4] = 0x00000000, [$t5] = 0x00000000, [$t6] = 0x00000000
[$t7] = 0x00000000, [$t8] = 0x00000000, [$t9] = 0x00000000
Time:               460000, CLK =  46, PC = 0x0000007c
[$s0] = 0x00000037, [$s1] = 0x00000037, [$s2] = 0x00000037
[$s3] = 0x00000020, [$s4] = 0x00000000, [$s5] = 0x00000000
[$s6] = 0x00000000, [$s7] = 0x00000000, [$t0] = 0x00000020
[$t1] = 0x00000037, [$t2] = 0x00000000, [$t3] = 0x00000000
[$t4] = 0x00000000, [$t5] = 0x00000000, [$t6] = 0x00000000
[$t7] = 0x00000000, [$t8] = 0x00000000, [$t9] = 0x00000000
Time:               470000, CLK =  47, PC = 0x0000007c
[$s0] = 0x00000037, [$s1] = 0x00000037, [$s2] = 0x00000037
[$s3] = 0x00000020, [$s4] = 0x00000000, [$s5] = 0x00000000
[$s6] = 0x00000000, [$s7] = 0x00000000, [$t0] = 0x00000020
[$t1] = 0x00000037, [$t2] = 0x00000000, [$t3] = 0x00000000
[$t4] = 0x00000000, [$t5] = 0x00000000, [$t6] = 0x00000000
[$t7] = 0x00000000, [$t8] = 0x00000000, [$t9] = 0x00000000
Time:               480000, CLK =  48, PC = 0x0000007c
[$s0] = 0x00000037, [$s1] = 0x00000037, [$s2] = 0x00000037
[$s3] = 0x00000020, [$s4] = 0x00000000, [$s5] = 0x00000000
[$s6] = 0x00000000, [$s7] = 0x00000000, [$t0] = 0x00000020
[$t1] = 0x00000037, [$t2] = 0x00000000, [$t3] = 0x00000000
[$t4] = 0x00000000, [$t5] = 0x00000000, [$t6] = 0x00000000
[$t7] = 0x00000000, [$t8] = 0x00000000, [$t9] = 0x00000000
Time:               490000, CLK =  49, PC = 0x0000007c
[$s0] = 0x00000037, [$s1] = 0x00000037, [$s2] = 0x00000037
[$s3] = 0x00000020, [$s4] = 0x00000000, [$s5] = 0x00000000
[$s6] = 0x00000000, [$s7] = 0x00000000, [$t0] = 0x00000020
[$t1] = 0x00000037, [$t2] = 0x00000000, [$t3] = 0x00000000
[$t4] = 0x00000000, [$t5] = 0x00000000, [$t6] = 0x00000000
[$t7] = 0x00000000, [$t8] = 0x00000000, [$t9] = 0x00000000
Time:               500000, CLK =  50, PC = 0x0000007c
[$s0] = 0x00000037, [$s1] = 0x00000037, [$s2] = 0x00000037
[$s3] = 0x00000020, [$s4] = 0x00000000, [$s5] = 0x00000000
[$s6] = 0x00000000, [$s7] = 0x00000000, [$t0] = 0x00000020
[$t1] = 0x00000037, [$t2] = 0x00000000, [$t3] = 0x00000000
[$t4] = 0x00000000, [$t5] = 0x00000000, [$t6] = 0x00000000
[$t7] = 0x00000000, [$t8] = 0x00000000, [$t9] = 0x00000000
==============================================================
$finish called at time : 502 ns : File "D:/Storage/UMSJTU JI/courses/7/VE370/Projects/Project2/VE370project2/VE370project2.srcs/sim_1/new/Textual.v" Line 15
